SystemC_RTL/vcd_file/VCD_trace_file.vcd
$date
     Nov 08, 2023       13:34:38
$end

$version
 SystemC 2.3.3-Accellera --- May  3 2023 20:17:10
$end

$timescale
     1 ps
$end

$scope module SystemC $end
$var wire    1  aaaaa  clk       $end
$var wire    1  aaaab  rst       $end
$var wire    1  aaaac  result_ld       $end
$var wire   32  aaaad  RD(0) [31:0]  $end
$var wire   16  aaaae  FDi(0) [15:0]  $end
$var wire   32  aaaaf  GD(0) [31:0]  $end
$var wire   16  aaaag  FDo(0) [15:0]  $end
$var wire   32  aaaah  RD(1) [31:0]  $end
$var wire   16  aaaai  FDi(1) [15:0]  $end
$var wire   32  aaaaj  GD(1) [31:0]  $end
$var wire   16  aaaak  FDo(1) [15:0]  $end
$var wire   32  aaaal  RD(2) [31:0]  $end
$var wire   16  aaaam  FDi(2) [15:0]  $end
$var wire   32  aaaan  GD(2) [31:0]  $end
$var wire   16  aaaao  FDo(2) [15:0]  $end
$var wire   32  aaaap  RD(3) [31:0]  $end
$var wire   16  aaaaq  FDi(3) [15:0]  $end
$var wire   32  aaaar  GD(3) [31:0]  $end
$var wire   16  aaaas  FDo(3) [15:0]  $end
$var wire   32  aaaat  RD(4) [31:0]  $end
$var wire   16  aaaau  FDi(4) [15:0]  $end
$var wire   32  aaaav  GD(4) [31:0]  $end
$var wire   16  aaaaw  FDo(4) [15:0]  $end
$var wire   32  aaaax  RD(5) [31:0]  $end
$var wire   16  aaaay  FDi(5) [15:0]  $end
$var wire   32  aaaaz  GD(5) [31:0]  $end
$var wire   16  aaaba  FDo(5) [15:0]  $end
$var wire   32  aaabb  RD(6) [31:0]  $end
$var wire   16  aaabc  FDi(6) [15:0]  $end
$var wire   32  aaabd  GD(6) [31:0]  $end
$var wire   16  aaabe  FDo(6) [15:0]  $end
$var wire   32  aaabf  RD(7) [31:0]  $end
$var wire   16  aaabg  FDi(7) [15:0]  $end
$var wire   32  aaabh  GD(7) [31:0]  $end
$var wire   16  aaabi  FDo(7) [15:0]  $end
$scope module SA_inst $end
$var wire   32  aaabj  V(8) [31:0]  $end
$upscope $end
$scope module pe_inst(0) $end
$var wire    3  aaabk  state_status0 [2:0]  $end
$var wire   32  aaagh  GD0 [31:0]  $end
$upscope $end
$scope module pe_inst(1) $end
$var wire    3  aaabl  state_status1 [2:0]  $end
$var wire   32  aaagg  GD1 [31:0]  $end
$upscope $end
$scope module pe_inst(10) $end
$var wire    3  aaabu  state_status10 [2:0]  $end
$var wire   32  aaafx  GD10 [31:0]  $end
$upscope $end
$scope module pe_inst(11) $end
$var wire    3  aaabv  state_status11 [2:0]  $end
$var wire   32  aaafw  GD11 [31:0]  $end
$upscope $end
$scope module pe_inst(12) $end
$var wire    3  aaabw  state_status12 [2:0]  $end
$var wire   32  aaafv  GD12 [31:0]  $end
$upscope $end
$scope module pe_inst(13) $end
$var wire    3  aaabx  state_status13 [2:0]  $end
$var wire   32  aaafu  GD13 [31:0]  $end
$upscope $end
$scope module pe_inst(14) $end
$var wire    3  aaaby  state_status14 [2:0]  $end
$var wire   32  aaaft  GD14 [31:0]  $end
$upscope $end
$scope module pe_inst(15) $end
$var wire    3  aaabz  state_status15 [2:0]  $end
$var wire   32  aaafs  GD15 [31:0]  $end
$upscope $end
$scope module pe_inst(16) $end
$var wire    3  aaaca  state_status16 [2:0]  $end
$var wire   32  aaafr  GD16 [31:0]  $end
$upscope $end
$scope module pe_inst(17) $end
$var wire    3  aaacb  state_status17 [2:0]  $end
$var wire   32  aaafq  GD17 [31:0]  $end
$upscope $end
$scope module pe_inst(18) $end
$var wire    3  aaacc  state_status18 [2:0]  $end
$var wire   32  aaafp  GD18 [31:0]  $end
$upscope $end
$scope module pe_inst(19) $end
$var wire    3  aaacd  state_status19 [2:0]  $end
$var wire   32  aaafo  GD19 [31:0]  $end
$upscope $end
$scope module pe_inst(2) $end
$var wire    3  aaabm  state_status2 [2:0]  $end
$var wire   32  aaagf  GD2 [31:0]  $end
$upscope $end
$scope module pe_inst(20) $end
$var wire    3  aaace  state_status20 [2:0]  $end
$var wire   32  aaafn  GD20 [31:0]  $end
$upscope $end
$scope module pe_inst(21) $end
$var wire    3  aaacf  state_status21 [2:0]  $end
$var wire   32  aaafm  GD21 [31:0]  $end
$upscope $end
$scope module pe_inst(22) $end
$var wire    3  aaacg  state_status22 [2:0]  $end
$var wire   32  aaafl  GD22 [31:0]  $end
$upscope $end
$scope module pe_inst(23) $end
$var wire    3  aaach  state_status23 [2:0]  $end
$var wire   32  aaafk  GD23 [31:0]  $end
$upscope $end
$scope module pe_inst(24) $end
$var wire    3  aaaci  state_status24 [2:0]  $end
$var wire   32  aaafj  GD24 [31:0]  $end
$upscope $end
$scope module pe_inst(25) $end
$var wire    3  aaacj  state_status25 [2:0]  $end
$var wire   32  aaafi  GD25 [31:0]  $end
$upscope $end
$scope module pe_inst(26) $end
$var wire    3  aaack  state_status26 [2:0]  $end
$var wire   32  aaafh  GD26 [31:0]  $end
$upscope $end
$scope module pe_inst(27) $end
$var wire    3  aaacl  state_status27 [2:0]  $end
$var wire   32  aaafg  GD27 [31:0]  $end
$upscope $end
$scope module pe_inst(28) $end
$var wire    3  aaacm  state_status28 [2:0]  $end
$var wire   32  aaaff  GD28 [31:0]  $end
$upscope $end
$scope module pe_inst(29) $end
$var wire    3  aaacn  state_status29 [2:0]  $end
$var wire   32  aaafe  GD29 [31:0]  $end
$upscope $end
$scope module pe_inst(3) $end
$var wire    3  aaabn  state_status3 [2:0]  $end
$var wire   32  aaage  GD3 [31:0]  $end
$upscope $end
$scope module pe_inst(30) $end
$var wire    3  aaaco  state_status30 [2:0]  $end
$var wire   32  aaafd  GD30 [31:0]  $end
$upscope $end
$scope module pe_inst(31) $end
$var wire    3  aaacp  state_status31 [2:0]  $end
$var wire   32  aaafc  GD31 [31:0]  $end
$upscope $end
$scope module pe_inst(32) $end
$var wire    3  aaacq  state_status32 [2:0]  $end
$var wire   32  aaafb  GD32 [31:0]  $end
$upscope $end
$scope module pe_inst(33) $end
$var wire    3  aaacr  state_status33 [2:0]  $end
$var wire   32  aaafa  GD33 [31:0]  $end
$upscope $end
$scope module pe_inst(34) $end
$var wire    3  aaacs  state_status34 [2:0]  $end
$var wire   32  aaaez  GD34 [31:0]  $end
$upscope $end
$scope module pe_inst(35) $end
$var wire    3  aaact  state_status35 [2:0]  $end
$var wire   32  aaaey  GD35 [31:0]  $end
$upscope $end
$scope module pe_inst(36) $end
$var wire    3  aaacu  state_status36 [2:0]  $end
$var wire   32  aaaex  GD36 [31:0]  $end
$upscope $end
$scope module pe_inst(37) $end
$var wire    3  aaacv  state_status37 [2:0]  $end
$var wire   32  aaaew  GD37 [31:0]  $end
$upscope $end
$scope module pe_inst(38) $end
$var wire    3  aaacw  state_status38 [2:0]  $end
$var wire   32  aaaev  GD38 [31:0]  $end
$upscope $end
$scope module pe_inst(39) $end
$var wire    3  aaacx  state_status39 [2:0]  $end
$var wire   32  aaaeu  GD39 [31:0]  $end
$upscope $end
$scope module pe_inst(4) $end
$var wire    3  aaabo  state_status4 [2:0]  $end
$var wire   32  aaagd  GD4 [31:0]  $end
$upscope $end
$scope module pe_inst(40) $end
$var wire    3  aaacy  state_status40 [2:0]  $end
$var wire   32  aaaet  GD40 [31:0]  $end
$upscope $end
$scope module pe_inst(41) $end
$var wire    3  aaacz  state_status41 [2:0]  $end
$var wire   32  aaaes  GD41 [31:0]  $end
$upscope $end
$scope module pe_inst(42) $end
$var wire    3  aaada  state_status42 [2:0]  $end
$var wire   32  aaaer  GD42 [31:0]  $end
$upscope $end
$scope module pe_inst(43) $end
$var wire    3  aaadb  state_status43 [2:0]  $end
$var wire   32  aaaeq  GD43 [31:0]  $end
$upscope $end
$scope module pe_inst(44) $end
$var wire    3  aaadc  state_status44 [2:0]  $end
$var wire   32  aaaep  GD44 [31:0]  $end
$upscope $end
$scope module pe_inst(45) $end
$var wire    3  aaadd  state_status45 [2:0]  $end
$var wire   32  aaaeo  GD45 [31:0]  $end
$upscope $end
$scope module pe_inst(46) $end
$var wire    3  aaade  state_status46 [2:0]  $end
$var wire   32  aaaen  GD46 [31:0]  $end
$upscope $end
$scope module pe_inst(47) $end
$var wire    3  aaadf  state_status47 [2:0]  $end
$var wire   32  aaaem  GD47 [31:0]  $end
$upscope $end
$scope module pe_inst(48) $end
$var wire    3  aaadg  state_status48 [2:0]  $end
$var wire   32  aaael  GD48 [31:0]  $end
$upscope $end
$scope module pe_inst(49) $end
$var wire    3  aaadh  state_status49 [2:0]  $end
$var wire   32  aaaek  GD49 [31:0]  $end
$upscope $end
$scope module pe_inst(5) $end
$var wire    3  aaabp  state_status5 [2:0]  $end
$var wire   32  aaagc  GD5 [31:0]  $end
$upscope $end
$scope module pe_inst(50) $end
$var wire    3  aaadi  state_status50 [2:0]  $end
$var wire   32  aaaej  GD50 [31:0]  $end
$upscope $end
$scope module pe_inst(51) $end
$var wire    3  aaadj  state_status51 [2:0]  $end
$var wire   32  aaaei  GD51 [31:0]  $end
$upscope $end
$scope module pe_inst(52) $end
$var wire    3  aaadk  state_status52 [2:0]  $end
$var wire   32  aaaeh  GD52 [31:0]  $end
$upscope $end
$scope module pe_inst(53) $end
$var wire    3  aaadl  state_status53 [2:0]  $end
$var wire   32  aaaeg  GD53 [31:0]  $end
$upscope $end
$scope module pe_inst(54) $end
$var wire    3  aaadm  state_status54 [2:0]  $end
$var wire   32  aaaef  GD54 [31:0]  $end
$upscope $end
$scope module pe_inst(55) $end
$var wire    3  aaadn  state_status55 [2:0]  $end
$var wire   32  aaaee  GD55 [31:0]  $end
$upscope $end
$scope module pe_inst(56) $end
$var wire    3  aaado  state_status56 [2:0]  $end
$var wire   32  aaaed  GD56 [31:0]  $end
$upscope $end
$scope module pe_inst(57) $end
$var wire    3  aaadp  state_status57 [2:0]  $end
$var wire   32  aaaec  GD57 [31:0]  $end
$upscope $end
$scope module pe_inst(58) $end
$var wire    3  aaadq  state_status58 [2:0]  $end
$var wire   32  aaaeb  GD58 [31:0]  $end
$upscope $end
$scope module pe_inst(59) $end
$var wire    3  aaadr  state_status59 [2:0]  $end
$var wire   32  aaaea  GD59 [31:0]  $end
$upscope $end
$scope module pe_inst(6) $end
$var wire    3  aaabq  state_status6 [2:0]  $end
$var wire   32  aaagb  GD6 [31:0]  $end
$upscope $end
$scope module pe_inst(60) $end
$var wire    3  aaads  state_status60 [2:0]  $end
$var wire   32  aaadz  GD60 [31:0]  $end
$upscope $end
$scope module pe_inst(61) $end
$var wire    3  aaadt  state_status61 [2:0]  $end
$var wire   32  aaady  GD61 [31:0]  $end
$upscope $end
$scope module pe_inst(62) $end
$var wire    3  aaadu  state_status62 [2:0]  $end
$var wire   32  aaadx  GD62 [31:0]  $end
$upscope $end
$scope module pe_inst(63) $end
$var wire    3  aaadv  state_status63 [2:0]  $end
$var wire   32  aaadw  GD63 [31:0]  $end
$upscope $end
$scope module pe_inst(7) $end
$var wire    3  aaabr  state_status7 [2:0]  $end
$var wire   32  aaaga  GD7 [31:0]  $end
$upscope $end
$scope module pe_inst(8) $end
$var wire    3  aaabs  state_status8 [2:0]  $end
$var wire   32  aaafz  GD8 [31:0]  $end
$upscope $end
$scope module pe_inst(9) $end
$var wire    3  aaabt  state_status9 [2:0]  $end
$var wire   32  aaafy  GD9 [31:0]  $end
$upscope $end
$upscope $end
$enddefinitions  $end

$comment
All initial values are dumped below at time 0 sec = 0 timescale units.
$end

$dumpvars
0aaaaa
1aaaab
0aaaac
b0 aaaad
b0 aaaae
b0 aaaaf
b0 aaaag
b0 aaaah
b0 aaaai
b0 aaaaj
b0 aaaak
b0 aaaal
b0 aaaam
b0 aaaan
b0 aaaao
b0 aaaap
b0 aaaaq
b0 aaaar
b0 aaaas
b0 aaaat
b0 aaaau
b0 aaaav
b0 aaaaw
b0 aaaax
b0 aaaay
b0 aaaaz
b0 aaaba
b0 aaabb
b0 aaabc
b0 aaabd
b0 aaabe
b0 aaabf
b0 aaabg
b0 aaabh
b0 aaabi
b0 aaabj
b0 aaabk
b0 aaabl
b0 aaabm
b0 aaabn
b0 aaabo
b0 aaabp
b0 aaabq
b0 aaabr
b0 aaabs
b0 aaabt
b0 aaabu
b0 aaabv
b0 aaabw
b0 aaabx
b0 aaaby
b0 aaabz
b0 aaaca
b0 aaacb
b0 aaacc
b0 aaacd
b0 aaace
b0 aaacf
b0 aaacg
b0 aaach
b0 aaaci
b0 aaacj
b0 aaack
b0 aaacl
b0 aaacm
b0 aaacn
b0 aaaco
b0 aaacp
b0 aaacq
b0 aaacr
b0 aaacs
b0 aaact
b0 aaacu
b0 aaacv
b0 aaacw
b0 aaacx
b0 aaacy
b0 aaacz
b0 aaada
b0 aaadb
b0 aaadc
b0 aaadd
b0 aaade
b0 aaadf
b0 aaadg
b0 aaadh
b0 aaadi
b0 aaadj
b0 aaadk
b0 aaadl
b0 aaadm
b0 aaadn
b0 aaado
b0 aaadp
b0 aaadq
b0 aaadr
b0 aaads
b0 aaadt
b0 aaadu
b0 aaadv
b0 aaadw
b0 aaadx
b0 aaady
b0 aaadz
b0 aaaea
b0 aaaeb
b0 aaaec
b0 aaaed
b0 aaaee
b0 aaaef
b0 aaaeg
b0 aaaeh
b0 aaaei
b0 aaaej
b0 aaaek
b0 aaael
b0 aaaem
b0 aaaen
b0 aaaeo
b0 aaaep
b0 aaaeq
b0 aaaer
b0 aaaes
b0 aaaet
b0 aaaeu
b0 aaaev
b0 aaaew
b0 aaaex
b0 aaaey
b0 aaaez
b0 aaafa
b0 aaafb
b0 aaafc
b0 aaafd
b0 aaafe
b0 aaaff
b0 aaafg
b0 aaafh
b0 aaafi
b0 aaafj
b0 aaafk
b0 aaafl
b0 aaafm
b0 aaafn
b0 aaafo
b0 aaafp
b0 aaafq
b0 aaafr
b0 aaafs
b0 aaaft
b0 aaafu
b0 aaafv
b0 aaafw
b0 aaafx
b0 aaafy
b0 aaafz
b0 aaaga
b0 aaagb
b0 aaagc
b0 aaagd
b0 aaage
b0 aaagf
b0 aaagg
b0 aaagh
$end

#3000
0aaaab
b1000 aaaad
b1001 aaaae
b1000 aaagh

#10000
1aaaaa
b1000 aaabj
b1 aaabk
b1 aaabl
b1 aaabm
b1 aaabn
b1 aaabo
b1 aaabp
b1 aaabq
b1 aaabr
b1 aaabs
b1 aaabt
b1 aaabu
b1 aaabv
b1 aaabw
b1 aaabx
b1 aaaby
b1 aaabz
b1 aaaca
b1 aaacb
b1 aaacc
b1 aaacd
b1 aaace
b1 aaacf
b1 aaacg
b1 aaach
b1 aaaci
b1 aaacj
b1 aaack
b1 aaacl
b1 aaacm
b1 aaacn
b1 aaaco
b1 aaacp
b1 aaacq
b1 aaacr
b1 aaacs
b1 aaact
b1 aaacu
b1 aaacv
b1 aaacw
b1 aaacx
b1 aaacy
b1 aaacz
b1 aaada
b1 aaadb
b1 aaadc
b1 aaadd
b1 aaade
b1 aaadf
b1 aaadg
b1 aaadh
b1 aaadi
b1 aaadj
b1 aaadk
b1 aaadl
b1 aaadm
b1 aaadn
b1 aaado
b1 aaadp
b1 aaadq
b1 aaadr
b1 aaads
b1 aaadt
b1 aaadu
b1 aaadv
b1000 aaafz

#20000
0aaaaa

#23000
b1000 aaaah
b11 aaaai
b1000 aaagg

#30000
1aaaaa
b10 aaabk
b10 aaabl
b10 aaabm
b10 aaabn
b10 aaabo
b10 aaabp
b10 aaabq
b10 aaabr
b10 aaabs
b10 aaabt
b10 aaabu
b10 aaabv
b10 aaabw
b10 aaabx
b10 aaaby
b10 aaabz
b10 aaaca
b10 aaacb
b10 aaacc
b10 aaacd
b10 aaace
b10 aaacf
b10 aaacg
b10 aaach
b10 aaaci
b10 aaacj
b10 aaack
b10 aaacl
b10 aaacm
b10 aaacn
b10 aaaco
b10 aaacp
b10 aaacq
b10 aaacr
b10 aaacs
b10 aaact
b10 aaacu
b10 aaacv
b10 aaacw
b10 aaacx
b10 aaacy
b10 aaacz
b10 aaada
b10 aaadb
b10 aaadc
b10 aaadd
b10 aaade
b10 aaadf
b10 aaadg
b10 aaadh
b10 aaadi
b10 aaadj
b10 aaadk
b10 aaadl
b10 aaadm
b10 aaadn
b10 aaado
b10 aaadp
b10 aaadq
b10 aaadr
b10 aaads
b10 aaadt
b10 aaadu
b10 aaadv
b1000 aaafr
b1000 aaafy

#40000
0aaaaa

#43000
b101 aaaad
b100 aaaae
b110 aaaah
b1010 aaaal
b1110 aaaam
b1010 aaagf
b110 aaagg
b101 aaagh

#50000
1aaaaa
b101 aaabj
b1 aaabk
b1 aaabl
b1 aaabm
b1 aaabn
b1 aaabo
b1 aaabp
b1 aaabq
b1 aaabr
b1 aaabs
b1 aaabt
b1 aaabu
b1 aaabv
b1 aaabw
b1 aaabx
b1 aaaby
b1 aaabz
b1 aaaca
b1 aaacb
b1 aaacc
b1 aaacd
b1 aaace
b1 aaacf
b1 aaacg
b1 aaach
b1 aaaci
b1 aaacj
b1 aaack
b1 aaacl
b1 aaacm
b1 aaacn
b1 aaaco
b1 aaacp
b1 aaacq
b1 aaacr
b1 aaacs
b1 aaact
b1 aaacu
b1 aaacv
b1 aaacw
b1 aaacx
b1 aaacy
b1 aaacz
b1 aaada
b1 aaadb
b1 aaadc
b1 aaadd
b1 aaade
b1 aaadf
b1 aaadg
b1 aaadh
b1 aaadi
b1 aaadj
b1 aaadk
b1 aaadl
b1 aaadm
b1 aaadn
b1 aaado
b1 aaadp
b1 aaadq
b1 aaadr
b1 aaads
b1 aaadt
b1 aaadu
b1 aaadv
b1000 aaafj
b1000 aaafq
b1010 aaafx
b110 aaafy
b101 aaafz

#60000
0aaaaa

#63000
b1110 aaaae
b1110 aaaai
b1110 aaaal
b1010 aaaam
b1000 aaaap
b1 aaaaq
b1000 aaage
b1110 aaagf

#70000
1aaaaa
b10 aaabk
b10 aaabl
b10 aaabm
b10 aaabn
b10 aaabo
b10 aaabp
b10 aaabq
b10 aaabr
b10 aaabs
b10 aaabt
b10 aaabu
b10 aaabv
b10 aaabw
b10 aaabx
b10 aaaby
b10 aaabz
b10 aaaca
b10 aaacb
b10 aaacc
b10 aaacd
b10 aaace
b10 aaacf
b10 aaacg
b10 aaach
b10 aaaci
b10 aaacj
b10 aaack
b10 aaacl
b10 aaacm
b10 aaacn
b10 aaaco
b10 aaacp
b10 aaacq
b10 aaacr
b10 aaacs
b10 aaact
b10 aaacu
b10 aaacv
b10 aaacw
b10 aaacx
b10 aaacy
b10 aaacz
b10 aaada
b10 aaadb
b10 aaadc
b10 aaadd
b10 aaade
b10 aaadf
b10 aaadg
b10 aaadh
b10 aaadi
b10 aaadj
b10 aaadk
b10 aaadl
b10 aaadm
b10 aaadn
b10 aaado
b10 aaadp
b10 aaadq
b10 aaadr
b10 aaads
b10 aaadt
b10 aaadu
b10 aaadv
b1000 aaafb
b1000 aaafi
b1010 aaafp
b110 aaafq
b101 aaafr
b1000 aaafw
b1110 aaafx

#80000
0aaaaa

#83000
b1000 aaaad
b1100 aaaae
b1001 aaaah
b100 aaaai
b110 aaaal
b110 aaaam
b11 aaaap
b11 aaaaq
b100 aaaat
b10 aaaau
b100 aaagd
b11 aaage
b110 aaagf
b1001 aaagg
b1000 aaagh

#90000
1aaaaa
b1000 aaabj
b1 aaabk
b1 aaabl
b1 aaabm
b1 aaabn
b1 aaabo
b1 aaabp
b1 aaabq
b1 aaabr
b1 aaabs
b1 aaabt
b1 aaabu
b1 aaabv
b1 aaabw
b1 aaabx
b1 aaaby
b1 aaabz
b1 aaaca
b1 aaacb
b1 aaacc
b1 aaacd
b1 aaace
b1 aaacf
b1 aaacg
b1 aaach
b1 aaaci
b1 aaacj
b1 aaack
b1 aaacl
b1 aaacm
b1 aaacn
b1 aaaco
b1 aaacp
b1 aaacq
b1 aaacr
b1 aaacs
b1 aaact
b1 aaacu
b1 aaacv
b1 aaacw
b1 aaacx
b1 aaacy
b1 aaacz
b1 aaada
b1 aaadb
b1 aaadc
b1 aaadd
b1 aaade
b1 aaadf
b1 aaadg
b1 aaadh
b1 aaadi
b1 aaadj
b1 aaadk
b1 aaadl
b1 aaadm
b1 aaadn
b1 aaado
b1 aaadp
b1 aaadq
b1 aaadr
b1 aaads
b1 aaadt
b1 aaadu
b1 aaadv
b1000 aaaet
b1000 aaafa
b1010 aaafh
b110 aaafi
b101 aaafj
b1000 aaafo
b1110 aaafp
b100 aaafv
b11 aaafw
b110 aaafx
b1001 aaafy
b1000 aaafz

#100000
0aaaaa

#103000
b111 aaaad
b1 aaaae
b101 aaaah
b1000 aaaai
b11 aaaal
b111 aaaam
b1011 aaaap
b1011 aaaaq
b10 aaaat
b110 aaaau
b1110 aaaax
b1101 aaaay
b1110 aaagc
b10 aaagd
b1011 aaage
b11 aaagf
b101 aaagg
b111 aaagh

#110000
1aaaaa
b111 aaabj
b10 aaabk
b10 aaabl
b10 aaabm
b10 aaabn
b10 aaabo
b10 aaabp
b10 aaabq
b10 aaabr
b10 aaabs
b10 aaabt
b10 aaabu
b10 aaabv
b10 aaabw
b10 aaabx
b10 aaaby
b10 aaabz
b10 aaaca
b10 aaacb
b10 aaacc
b10 aaacd
b10 aaace
b10 aaacf
b10 aaacg
b10 aaach
b10 aaaci
b10 aaacj
b10 aaack
b10 aaacl
b10 aaacm
b10 aaacn
b10 aaaco
b10 aaacp
b10 aaacq
b10 aaacr
b10 aaacs
b10 aaact
b10 aaacu
b10 aaacv
b10 aaacw
b10 aaacx
b10 aaacy
b10 aaacz
b10 aaada
b10 aaadb
b10 aaadc
b10 aaadd
b10 aaade
b10 aaadf
b10 aaadg
b10 aaadh
b10 aaadi
b10 aaadj
b10 aaadk
b10 aaadl
b10 aaadm
b10 aaadn
b10 aaado
b10 aaadp
b10 aaadq
b10 aaadr
b10 aaads
b10 aaadt
b10 aaadu
b10 aaadv
b1000 aaael
b1000 aaaes
b1010 aaaez
b110 aaafa
b101 aaafb
b1000 aaafg
b1110 aaafh
b100 aaafn
b11 aaafo
b110 aaafp
b1001 aaafq
b1000 aaafr
b1110 aaafu
b10 aaafv
b1011 aaafw
b11 aaafx
b101 aaafy
b111 aaafz

#120000
0aaaaa

#123000
b1010 aaaad
b11 aaaae
b1000 aaaah
b1101 aaaal
b1001 aaaam
b1101 aaaap
b10 aaaaq
b1011 aaaat
b1100 aaaau
b11 aaaax
b1 aaaay
b1100 aaabb
b1101 aaabc
b1100 aaagb
b11 aaagc
b1011 aaagd
b1101 aaage
b1101 aaagf
b1000 aaagg
b1010 aaagh

#130000
1aaaaa
b1010 aaabj
b1 aaabk
b1 aaabl
b1 aaabm
b1 aaabn
b1 aaabo
b1 aaabp
b1 aaabq
b1 aaabr
b1 aaabs
b1 aaabt
b1 aaabu
b1 aaabv
b1 aaabw
b1 aaabx
b1 aaaby
b1 aaabz
b1 aaaca
b1 aaacb
b1 aaacc
b1 aaacd
b1 aaace
b1 aaacf
b1 aaacg
b1 aaach
b1 aaaci
b1 aaacj
b1 aaack
b1 aaacl
b1 aaacm
b1 aaacn
b1 aaaco
b1 aaacp
b1 aaacq
b1 aaacr
b1 aaacs
b1 aaact
b1 aaacu
b1 aaacv
b1 aaacw
b1 aaacx
b1 aaacy
b1 aaacz
b1 aaada
b1 aaadb
b1 aaadc
b1 aaadd
b1 aaade
b1 aaadf
b1 aaadg
b1 aaadh
b1 aaadi
b1 aaadj
b1 aaadk
b1 aaadl
b1 aaadm
b1 aaadn
b1 aaado
b1 aaadp
b1 aaadq
b1 aaadr
b1 aaads
b1 aaadt
b1 aaadu
b1 aaadv
b1000 aaaed
b1000 aaaek
b1010 aaaer
b110 aaaes
b101 aaaet
b1000 aaaey
b1110 aaaez
b100 aaaff
b11 aaafg
b110 aaafh
b1001 aaafi
b1000 aaafj
b1110 aaafm
b10 aaafn
b1011 aaafo
b11 aaafp
b101 aaafq
b111 aaafr
b1100 aaaft
b11 aaafu
b1011 aaafv
b1101 aaafw
b1101 aaafx
b1000 aaafy
b1010 aaafz

#140000
0aaaaa

#143000
b111 aaaad
b101 aaaae
b1100 aaaah
b101 aaaai
b111 aaaal
b101 aaaam
b101 aaaap
b100 aaaaq
b111 aaaat
b1000 aaaau
b1 aaaax
b1011 aaaay
b1000 aaabb
b111 aaabc
b1010 aaabf
b1010 aaabg
b1010 aaaga
b1000 aaagb
b1 aaagc
b111 aaagd
b101 aaage
b111 aaagf
b1100 aaagg
b111 aaagh

#150000
1aaaaa
b1000 aaaaf
b1001 aaaag
b111 aaabj
b10 aaabk
b10 aaabl
b10 aaabm
b10 aaabn
b10 aaabo
b10 aaabp
b10 aaabq
b10 aaabr
b10 aaabs
b10 aaabt
b10 aaabu
b10 aaabv
b10 aaabw
b10 aaabx
b10 aaaby
b10 aaabz
b10 aaaca
b10 aaacb
b10 aaacc
b10 aaacd
b10 aaace
b10 aaacf
b10 aaacg
b10 aaach
b10 aaaci
b10 aaacj
b10 aaack
b10 aaacl
b10 aaacm
b10 aaacn
b10 aaaco
b10 aaacp
b10 aaacq
b10 aaacr
b10 aaacs
b10 aaact
b10 aaacu
b10 aaacv
b10 aaacw
b10 aaacx
b10 aaacy
b10 aaacz
b10 aaada
b10 aaadb
b10 aaadc
b10 aaadd
b10 aaade
b10 aaadf
b10 aaadg
b10 aaadh
b10 aaadi
b10 aaadj
b10 aaadk
b10 aaadl
b10 aaadm
b10 aaadn
b10 aaado
b10 aaadp
b10 aaadq
b10 aaadr
b10 aaads
b10 aaadt
b10 aaadu
b10 aaadv
b1000 aaaec
b1010 aaaej
b110 aaaek
b101 aaael
b1000 aaaeq
b1110 aaaer
b100 aaaex
b11 aaaey
b110 aaaez
b1001 aaafa
b1000 aaafb
b1110 aaafe
b10 aaaff
b1011 aaafg
b11 aaafh
b101 aaafi
b111 aaafj
b1100 aaafl
b11 aaafm
b1011 aaafn
b1101 aaafo
b1101 aaafp
b1000 aaafq
b1010 aaafr
b1010 aaafs
b1000 aaaft
b1 aaafu
b111 aaafv
b101 aaafw
b111 aaafx
b1100 aaafy
b111 aaafz

#160000
0aaaaa

#163000
b0 aaaad
b0 aaaae
b11 aaaah
b111 aaaai
b1011 aaaam
b1001 aaaap
b11 aaaat
b111 aaaau
b1010 aaaax
b1100 aaaay
b1 aaabb
b11 aaabc
b10 aaabf
b1100 aaabg
b10 aaaga
b1 aaagb
b1010 aaagc
b11 aaagd
b1001 aaage
b11 aaagg
b0 aaagh

#170000
1aaaaa
b1000 aaaaj
b11 aaaak
b0 aaabj
b1 aaabk
b1 aaabl
b1 aaabm
b1 aaabn
b1 aaabo
b1 aaabp
b1 aaabq
b1 aaabr
b1 aaabs
b1 aaabt
b1 aaabu
b1 aaabv
b1 aaabw
b1 aaabx
b1 aaaby
b1 aaabz
b1 aaaca
b1 aaacb
b1 aaacc
b1 aaacd
b1 aaace
b1 aaacf
b1 aaacg
b1 aaach
b1 aaaci
b1 aaacj
b1 aaack
b1 aaacl
b1 aaacm
b1 aaacn
b1 aaaco
b1 aaacp
b1 aaacq
b1 aaacr
b1 aaacs
b1 aaact
b1 aaacu
b1 aaacv
b1 aaacw
b1 aaacx
b1 aaacy
b1 aaacz
b1 aaada
b1 aaadb
b1 aaadc
b1 aaadd
b1 aaade
b1 aaadf
b1 aaadg
b1 aaadh
b1 aaadi
b1 aaadj
b1 aaadk
b1 aaadl
b1 aaadm
b1 aaadn
b1 aaado
b1 aaadp
b1 aaadq
b1 aaadr
b1 aaads
b1 aaadt
b1 aaadu
b1 aaadv
b1010 aaaeb
b110 aaaec
b101 aaaed
b1000 aaaei
b1110 aaaej
b100 aaaep
b11 aaaeq
b110 aaaer
b1001 aaaes
b1000 aaaet
b1110 aaaew
b10 aaaex
b1011 aaaey
b11 aaaez
b101 aaafa
b111 aaafb
b1100 aaafd
b11 aaafe
b1011 aaaff
b1101 aaafg
b1101 aaafh
b1000 aaafi
b1010 aaafj
b1010 aaafk
b1000 aaafl
b1 aaafm
b111 aaafn
b101 aaafo
b111 aaafp
b1100 aaafq
b111 aaafr
b10 aaafs
b1 aaaft
b1010 aaafu
b11 aaafv
b1001 aaafw
b11 aaafy
b0 aaafz

#180000
0aaaaa

#183000
b0 aaaah
b0 aaaai
b101 aaaal
b1100 aaaam
b1011 aaaaq
b101 aaaat
b101 aaaax
b1000 aaaay
b1001 aaabb
b10 aaabc
b1 aaabf
b100 aaabg
b1 aaaga
b1001 aaagb
b101 aaagc
b101 aaagd
b101 aaagf
b0 aaagg

